…
    ## Rows: 35 Columns: 1443
    ## ── Column specification ────────────────────────────────────────────────────────
    ## Delimiter: ","
    ## chr    (1): day
    ## dbl (1442): week, day_id, activity.1, activity.2, activity.3, activity.4, ac...
    ## 
    ## ℹ Use `spec()` to retrieve the full column specification for this data.
    ## ℹ Specify the column types or set `show_col_types = FALSE` to quiet this message.

    ## # A tibble: 50,400 × 6
    ##     week day_id day    weekday_vs_weekend minute activity
    ##    <dbl>  <dbl> <chr>  <chr>               <int>    <dbl>
    ##  1     1      1 Friday weekday                 1     88.4
    ##  2     1      1 Friday weekday                 2     82.2
    ##  3     1      1 Friday weekday                 3     64.4
    ##  4     1      1 Friday weekday                 4     70.0
    ##  5     1      1 Friday weekday                 5     75.0
    ##  6     1      1 Friday weekday                 6     66.3
    ##  7     1      1 Friday weekday                 7     53.8
    ##  8     1      1 Friday weekday                 8     47.8
    ##  9     1      1 Friday weekday                 9     55.5
    ## 10     1      1 Friday weekday                10     43.0
    ## # … with 50,390 more rows
…
To better use the activity data, we can aggregate across minutes to
create a total activity variable for each day. Then I plot these
activity per day to see if there is an activity trend.

``` r
accel_df %>% group_by(week, day_id, day) %>% 
  summarize(total_activity = sum(activity))
```

    ## `summarise()` has grouped output by 'week', 'day_id'. You can override using
    ## the `.groups` argument.

    ## # A tibble: 35 × 4
    ## # Groups:   week, day_id [35]
    ##     week day_id day       total_activity
    ##    <dbl>  <dbl> <chr>              <dbl>
    ##  1     1      1 Friday           480543.
    ##  2     1      2 Monday            78828.
    ##  3     1      3 Saturday         376254 
    ##  4     1      4 Sunday           631105 
    ##  5     1      5 Thursday         355924.
    ##  6     1      6 Tuesday          307094.
    ##  7     1      7 Wednesday        340115.
    ##  8     2      8 Friday           568839 
    ##  9     2      9 Monday           295431 
    ## 10     2     10 Saturday         607175 
    ## # … with 25 more rows
…
``` r
data('ny_noaa')
(ny_noaa <- ny_noaa %>% 
  separate(date, into = c('year', 'month', 'day'), sep='-') %>% 
  mutate(prcp = prcp/10, tmax = as.numeric(tmax)/ 10, 
         tmin = as.numeric(tmin)/10))
```

    ## # A tibble: 2,595,176 × 9
    ##    id          year  month day    prcp  snow  snwd  tmax  tmin
    ##    <chr>       <chr> <chr> <chr> <dbl> <int> <int> <dbl> <dbl>
    ##  1 US1NYAB0001 2007  11    01       NA    NA    NA    NA    NA
    ##  2 US1NYAB0001 2007  11    02       NA    NA    NA    NA    NA
    ##  3 US1NYAB0001 2007  11    03       NA    NA    NA    NA    NA
    ##  4 US1NYAB0001 2007  11    04       NA    NA    NA    NA    NA
    ##  5 US1NYAB0001 2007  11    05       NA    NA    NA    NA    NA
    ##  6 US1NYAB0001 2007  11    06       NA    NA    NA    NA    NA
    ##  7 US1NYAB0001 2007  11    07       NA    NA    NA    NA    NA
    ##  8 US1NYAB0001 2007  11    08       NA    NA    NA    NA    NA
    ##  9 US1NYAB0001 2007  11    09       NA    NA    NA    NA    NA
    ## 10 US1NYAB0001 2007  11    10       NA    NA    NA    NA    NA
    ## # … with 2,595,166 more rows
…
